{
  "main":{
    "SafeMath":"0x071108Ad85d7a766B41E0f5e5195537A8FC8E74D",
    "AddressArray": "0xd942f306075a0f7bC375328dB822FCc3103B3268",
    "SafeERC20":"0x09C9bc85A17d0ba99F629A2cAc0F850Bea9F56b8",
    "Address":"0x722d5cdbCE371497F1a46F90671258D0FdC37833",
    "TrustListFactory":"0x21991E2cDD280558A398814e20a36E244d014520",
    "ERC20SalaryV2Factory":"0x2C722AFc880964cb5E2779362f1975B4A21d7CaD",
    "TokenAuctionFactory":"0x071108Ad85d7a766B41E0f5e5195537A8FC8E74D",
    "MerkleDropFactory":"0xd0FF1A6a7f9e5d6F7D3EAc296D707E9e95B3AAa4",
    "HDispatcherFactory":"0xF6C9f233762932E0b5D2cf585931F38E25C9F536",
    "HEnvFactory":"0x630832Ee8c072455cCA9844B98AB1A516C9a95c0",
  }
}
